<?xml version="1.0" encoding="UTF-8" standalone="no"?>
<!-- Generator: Adobe Illustrator 16.0.0, SVG Export Plug-In . SVG Version: 6.00 Build 0)  -->

<svg
   xmlns:dc="http://purl.org/dc/elements/1.1/"
   xmlns:cc="http://creativecommons.org/ns#"
   xmlns:rdf="http://www.w3.org/1999/02/22-rdf-syntax-ns#"
   xmlns:svg="http://www.w3.org/2000/svg"
   xmlns="http://www.w3.org/2000/svg"
   xmlns:sodipodi="http://sodipodi.sourceforge.net/DTD/sodipodi-0.dtd"
   xmlns:inkscape="http://www.inkscape.org/namespaces/inkscape"
   version="1.1"
   id="Capa_1"
   x="0px"
   y="0px"
   width="1000"
   height="1000"
   viewBox="0 0 1000 1000"
   enable-background="new 0 0 283.465 368.503"
   xml:space="preserve"
   sodipodi:docname="vitrinas interactivas.svg"
   inkscape:version="0.92.3 (2405546, 2018-03-11)"><metadata
   id="metadata255"><rdf:RDF><cc:Work
       rdf:about=""><dc:format>image/svg+xml</dc:format><dc:type
         rdf:resource="http://purl.org/dc/dcmitype/StillImage" /><dc:title></dc:title></cc:Work></rdf:RDF></metadata><defs
   id="defs253">
	
	
	
</defs><sodipodi:namedview
   pagecolor="#ffffff"
   bordercolor="#666666"
   borderopacity="1"
   objecttolerance="10"
   gridtolerance="10"
   guidetolerance="10"
   inkscape:pageopacity="0"
   inkscape:pageshadow="2"
   inkscape:window-width="1366"
   inkscape:window-height="705"
   id="namedview251"
   showgrid="false"
   inkscape:zoom="0.48016506"
   inkscape:cx="490.01776"
   inkscape:cy="483.64671"
   inkscape:window-x="-8"
   inkscape:window-y="-8"
   inkscape:window-maximized="1"
   inkscape:current-layer="Capa_1" />


<circle
   style="opacity:1;fill:#edf1e3;fill-opacity:1;fill-rule:nonzero;stroke:none;stroke-width:6.28372574;stroke-miterlimit:4;stroke-dasharray:none;stroke-dashoffset:0;stroke-opacity:1"
   id="path1065"
   cx="332.38522"
   cy="161.23701"
   r="150" /><path
   style="fill:#b288bd;stroke-width:3.33856964"
   inkscape:connector-curvature="0"
   id="path18"
   d="m 270.26447,207.25585 c -8.47329,-12.3694 -13.06716,-26.86213 -13.06716,-41.76217 0,-41.47171 33.7329,-75.204615 75.18792,-75.204615 41.45502,0 75.18459,33.732905 75.18459,75.204615 0,9.20444 -1.75609,18.43225 -5.07462,27.01905 -7.21799,-17.48409 -13.71819,-31.32246 -19.39042,-41.24135 -4.82757,-22.0379 -26.34799,-38.8476 -50.71955,-38.8476 -29.25922,0 -53.05321,23.77729 -53.05321,53.0699 0,0.69443 0.0568,1.40888 0.13355,2.12333 -5.34171,11.7718 -8.40986,25.06932 -9.2011,39.63884 z" /><path
   style="fill:#462778;stroke-width:3.33856964"
   inkscape:connector-curvature="0"
   id="path20"
   d="m 284.77389,297.47402 c -55.85093,-20.01139 -92.88234,-72.19323 -92.88234,-131.98034 0,-77.464827 63.02885,-140.493683 140.49368,-140.493683 77.4615,0 140.49369,63.028856 140.49369,140.493683 0,38.05636 -15.59446,74.5102 -42.91731,100.93164 -2.78103,-8.02926 -5.54203,-15.88491 -8.27966,-23.50687 18.75609,-21.59387 29.04556,-48.98015 29.04556,-77.42477 0,-65.26569 -53.0699,-118.375659 -118.33894,-118.375659 -65.26903,0 -118.35897,53.109969 -118.35897,118.375659 0,43.98232 25.28299,85.10682 64.57128,105.25175 z" /><path
   style="fill:#221b45;stroke-width:3.33856964"
   inkscape:connector-curvature="0"
   id="path22"
   d="m 228.19181,739.40715 c -11.59819,-26.89885 -20.16829,-213.74858 0.17361,-234.10718 12.87352,-12.87352 59.39983,3.48881 71.77257,26.51492 20.89945,38.90769 4.95778,71.34524 20.97623,113.5314 15.36076,40.47348 41.33817,31.2824 54.1516,-12.69658 0,0 3.08484,-54.03475 -1.0817,-71.42202 -6.98762,-29.25922 -52.83954,-224.24838 -73.56538,-314.9473 -18.31539,-80.05222 35.87627,-111.02413 52.95306,-91.10956 36.43381,42.51334 130.91866,380.52682 130.91866,380.52682 l -16.63609,-95.87704 c 0,-34.44402 89.41357,-17.48409 100.21718,6.42675 l 25.65023,89.45029 c 0,0 -10.22603,-58.87901 -10.22603,-85.08678 0,-14.64631 68.31381,1.17851 85.89805,25.31971 12.02219,16.51924 33.5593,59.76707 33.5593,59.76707 0,0 -16.84642,-53.86114 -14.56951,-57.39335 5.2282,-8.06932 60.73192,20.18499 78.75685,46.69991 58.35486,85.91809 41.64866,182.29258 26.68853,286.17551 -10.75019,74.45344 -50.80969,126.28807 -72.69735,149.69812 -8.39317,9.03083 -20.185,14.12215 -32.47761,14.12215 H 460.21572 c -11.40455,0 -21.61056,-5.26826 -30.62469,-12.25589 C 342.65134,895.2616 270.45477,837.46428 228.19181,739.40715 Z" />



























































</svg>